20 20 3 400 500
5
25 75 150 275 400
5
2 18
3 0 0 4 6
7 4
8 6 0 0 5
10 10
7 5 9 0 0
16 14
0 7 5 3 0
18 5
0 0 1 7 4
6
1 2
5
0 0 3 3 3
3 7
6
0 1 2 2 3 4
5 13
13
0 0 0 0 0 1 1 1 1 1 4 4 4
14 17
11
0 0 1 2 2 2 2 2 2 4 4
15 2
12
1 1 1 1 2 3 3 3 3 4 4 4
16 9
12
0 1 2 2 2 3 3 3 3 4 4 4